INDEX VERSION 1.129+/home/y/yeej/cs3832017-yeej2305/labs/.metadata/.plugins/org.eclipse.jdt.core
3214207201.index
2630498905.index
2378519275.index
46282419.index
1913109094.index
2066489604.index
2188923391.index
3774382786.index
2841451250.index
128082264.index
527624335.index
3885805113.index
718764315.index
2771403403.index
3721837726.index
3850163322.index
120211678.index
1932949083.index
3888198363.index
742522455.index
2346627080.index
2174481639.index
2233963263.index
2982035129.index
